Assignment 9
…
Reporting the final MLR coefficients table

coefficients <- broom::tidy(mlr_model)
coefficients 

# A tibble: 28 × 5
   term                                estimate std.error statistic  p.value
   <chr>                                  <dbl>     <dbl>     <dbl>    <dbl>
 1 (Intercept)                           19907.     1571.    12.7   2.17e-28
 2 humidity                              -1095.     1370.    -0.799 4.25e- 1
 3 seasons_Spring                        -1856.      260.    -7.15  1.10e-11
 4 seasons_Summer                         5650.     1012.     5.58  6.59e- 8
 5 seasons_Winter                        -4817.     1003.    -4.80  2.81e- 6
 6 holiday_No.Holiday                      768.      201.     3.83  1.67e- 4
 7 day_type_Weekend                      -1063.      185.    -5.74  2.89e- 8
 8 seasons_Spring_x_holiday_No.Holiday    -296.      249.    -1.19  2.36e- 1
 9 seasons_Summer_x_holiday_No.Holiday    -214.      269.    -0.795 4.27e- 1
10 seasons_Winter_x_holiday_No.Holiday    -363.      201.    -1.80  7.25e- 2
# ℹ 18 more rows
…
LASSO_grid <- LASSO_wkf |>
  tune_grid(resamples = data_10_fold,
            grid = grid_regular(penalty(), levels = 200),
            metrics = metric_set(rmse, mae)) # defining model metrics

Warning: package 'glmnet' was built under R version 4.4.2

Collecting the metrics computed across the folds for each tuning parameter

LASSO_grid |>
  collect_metrics() |> # collecting defining model metrics
  filter(.metric == "rmse") # filter by defining model metrics

# A tibble: 200 × 7
    penalty .metric .estimator  mean     n std_err .config               
      <dbl> <chr>   <chr>      <dbl> <int>   <dbl> <chr>                 
 1 1   e-10 rmse    standard   3960.    10    189. Preprocessor1_Model001
 2 1.12e-10 rmse    standard   3960.    10    189. Preprocessor1_Model002
 3 1.26e-10 rmse    standard   3960.    10    189. Preprocessor1_Model003
 4 1.41e-10 rmse    standard   3960.    10    189. Preprocessor1_Model004
 5 1.59e-10 rmse    standard   3960.    10    189. Preprocessor1_Model005
 6 1.78e-10 rmse    standard   3960.    10    189. Preprocessor1_Model006
 7 2.00e-10 rmse    standard   3960.    10    189. Preprocessor1_Model007
 8 2.25e-10 rmse    standard   3960.    10    189. Preprocessor1_Model008
 9 2.52e-10 rmse    standard   3960.    10    189. Preprocessor1_Model009
10 2.83e-10 rmse    standard   3960.    10    189. Preprocessor1_Model010
# ℹ 190 more rows
…
FYI: I didn’t set a seed so every time I render my quarto document the best final model changes between the MLR and Random Forest models. Most of the time, the MLR model is the best.

Fitting the best overall model to the entire dataset!

# Fit the model to the entire dataset
MLR_final <- workflow() |>
  add_recipe(rec_3) |> # Recipe
  add_model(mlr_spec) |>
  fit(data)

MLR_final |>
  tidy()

# A tibble: 28 × 5
   term                                estimate std.error statistic  p.value
   <chr>                                  <dbl>     <dbl>     <dbl>    <dbl>
 1 (Intercept)                           20922.     1288.    16.2   7.52e-44
 2 humidity                              -2003.     1172.    -1.71  8.84e- 2
 3 seasons_Spring                        -1963.      216.    -9.10  9.11e-18
 4 seasons_Summer                         6779.      800.     8.47  8.37e-16
 5 seasons_Winter                        -4760.      845.    -5.64  3.79e- 8
 6 holiday_No.Holiday                      749.      172.     4.37  1.69e- 5
 7 day_type_Weekend                      -1091.      153.    -7.14  6.13e-12
 8 seasons_Spring_x_holiday_No.Holiday    -260.      213.    -1.22  2.24e- 1
 9 seasons_Summer_x_holiday_No.Holiday    -179.      232.    -0.770 4.42e- 1
10 seasons_Winter_x_holiday_No.Holiday    -301.      168.    -1.79  7.48e- 2
# ℹ 18 more rows
